MOMS-PI: Key dynamics
…
Which species tend to be dominant?

top_species %>%
  filter(type == 'Uncalibrated') %>%
  count(.otu) %>%
  arrange(desc(n)) %>%
  print(n=20)

# A tibble: 53 × 2
   .otu                                     n
   <chr>                                <int>
 1 Lactobacillus_iners                    779
 2 Lactobacillus_crispatus                425
 3 Lachnospiraceae_BVAB1                  238
 4 Gardnerella_vaginalis                  137
 5 Lactobacillus_gasseri_cluster           68
 6 Prevotella_cluster2                     53
 7 Atopobium_vaginae                       52
 8 Lactobacillus_jensenii                  50
 9 Sneathia_amnii                          23
10 Prevotella_bivia                        16
11 Streptococcus_cluster29                 16
12 Mycoplasma_girerdii                     11
13 Mycoplasma_hominis                       6
14 Corynebacterium_cluster58                5
15 Lactobacillus_delbrueckii                5
16 Bifidobacterium_longum_infantis_suis     4
17 Finegoldia_magna                         4
18 Prevotella_disiens                       4
19 Staphylococcus_cluster47                 4
20 Streptococcus_agalactiae                 4
# … with 33 more rows

top_species %>%
  filter(type == 'Calibrated') %>%
  count(.otu) %>%
  arrange(desc(n)) %>%
  print(n=20)

# A tibble: 60 × 2
   .otu                              n
   <chr>                         <int>
 1 Gardnerella_vaginalis           525
 2 Lactobacillus_iners             491
 3 Lactobacillus_crispatus         386
 4 Lachnospiraceae_BVAB1           183
 5 Atopobium_vaginae                63
 6 Lactobacillus_jensenii           51
 7 Lactobacillus_gasseri_cluster    45
 8 Streptococcus_cluster29          28
 9 Streptococcus_anginosus          20
10 Prevotella_cluster2              16
11 Mycoplasma_girerdii              15
12 Streptococcus_agalactiae         11
13 Finegoldia_magna                  9
14 Ureaplasma_cluster23              9
15 Corynebacterium_cluster58         7
16 Mycoplasma_hominis                7
17 Clostridiales_OTU22               5
18 Lactobacillus_delbrueckii         5
19 Prevotella_bivia                  5
20 Anaerococcus_OTU147               4
# … with 40 more rows
…
