Exploring the effect of bias in Leopold and Busby (2020)
…
Experiment samples

We could just try picking a high and low Melampsora sample - perhaps from the mode of the peaks, rather than the extreme.

sme0 %>%
  filter(Samp_type == "Experiment") %>%
  select(Sample, SMRE, Melampsora) %>%
  arrange(SMRE) %>%
  mutate(
    log10_SMRE = log10(SMRE),
    diff = c(NA, diff(log10_SMRE))
  )

# A tibble: 548 x 5
   Sample         SMRE Melampsora log10_SMRE       diff
   <chr>         <dbl>      <dbl>      <dbl>      <dbl>
 1 G12.T6.R4.TP1 0.996  0.00182     -0.00185 NA        
 2 G1.T5.R2.TP1  1.24   0.0000218    0.0939   0.0958   
 3 G11.T2.R4.TP1 1.24   0.0000836    0.0951   0.00114  
 4 G12.T1.R2.TP1 1.28   0.0000166    0.108    0.0128   
 5 G12.T2.R4.TP1 1.28   0.0000309    0.108    0.000619 
 6 G11.T3.R3.TP1 1.29   0.000253     0.110    0.00119  
 7 G2.T2.R4.TP1  1.29   0.0000220    0.110    0.000570 
 8 G8.T4.R1.TP1  1.29   0.0000132    0.110    0.0000354
 9 G9.T5.R3.TP1  1.29   0.0000714    0.110    0.000185 
10 G4.T6.R3.TP1  1.29   0.000197     0.112    0.00139  
#  with 538 more rows
…
